{
    "ER_DB_CONNECT": "Помилка при спробі з'єднатись з СуБД",
    "ER_ENCORE_INIT_MODULE" : "Помилка при спробі ініціалізації модуля '%1', відсутній файл модуля",
    "ER_DB_SELECT" : "Помилка при виконані вибірки з СуБД: %1",
    "ER_DB_EXEC" : "Помилка при виконанні запиту до СуБД: %1",
    "ER_PAGE_MODULE_INIT" : "Помилка при ініціалізації модуля '%1' для сторінки '%2'",
    "ER_REQUIRE_MODULE" : "Помилка, відсутній потрібний по залежності від '%1' модуль '%2'",
}